<?xml version="1.0" encoding="UTF-8" standalone="no"?>
<svg width="335px" height="84px" viewBox="0 0 335 84" version="1.1" xmlns="http://www.w3.org/2000/svg" xmlns:xlink="http://www.w3.org/1999/xlink" xmlns:sketch="http://www.bohemiancoding.com/sketch/ns">
    <title>Untitled</title>
    <description>Created with Sketch (http://www.bohemiancoding.com/sketch)</description>
    <defs></defs>
    <g id="Page-1" stroke="none" stroke-width="1" fill="none" fill-rule="evenodd" sketch:type="MSPage">
        <g id="Uusi-Kaupunki-logo-white" sketch:type="MSLayerGroup" transform="translate(1.000000, 0.000000)" fill="#000000">
            <path d="M36.769,84.341 C26.803,69.893 23.165,63.091 20.053,61.351 L35.293,46.902 L23.692,46.902 L8.031,61.825 L8.031,46.902 L-0.301,46.902 L-0.301,84.341 L8.031,84.341 L8.031,72.741 L14.095,67.046 C15.729,67.784 17.839,71.95 26.276,84.341 L36.769,84.341 L36.769,84.341 Z M67.564,73.953 L72.151,84.341 L81.906,84.341 L64.452,46.902 L56.385,46.902 L38.878,84.341 L48.106,84.341 L52.535,73.953 L67.564,73.953 L67.564,73.953 Z M64.505,67.098 L55.435,67.098 L59.865,56.658 L64.505,67.098 L64.505,67.098 Z M117.763,46.902 L109.379,46.902 L109.379,67.151 C109.379,74.112 106.267,77.697 99.729,77.697 C93.296,77.697 90.606,74.059 90.606,67.151 L90.606,46.902 L81.642,46.902 L81.642,67.415 C81.642,81.283 91.45,85.08 99.676,85.08 C108.008,85.08 117.763,81.336 117.763,67.415 L117.763,46.902 L117.763,46.902 Z M123.299,46.955 L123.299,84.341 L131.736,84.341 L131.736,72.846 L140.595,72.846 C150.192,72.846 158.366,69.366 158.366,59.874 C158.366,50.119 150.456,46.955 140.595,46.955 L123.299,46.955 L123.299,46.955 Z M131.684,65.675 L131.684,54.074 L140.595,54.074 C147.345,54.074 149.401,55.814 149.401,59.927 C149.401,63.882 147.239,65.675 140.595,65.675 L131.684,65.675 L131.684,65.675 Z M199.338,46.902 L190.953,46.902 L190.953,67.151 C190.953,74.112 187.842,77.697 181.304,77.697 C174.87,77.697 172.181,74.059 172.181,67.151 L172.181,46.902 L163.217,46.902 L163.217,67.415 C163.217,81.283 173.025,85.08 181.251,85.08 C189.582,85.08 199.338,81.336 199.338,67.415 L199.338,46.902 L199.338,46.902 Z M213.153,58.503 L232.294,84.341 L241.417,84.341 L241.417,46.902 L232.98,46.902 L232.927,71.159 L215.104,46.902 L204.716,46.902 L204.716,84.341 L213.153,84.341 L213.153,58.503 L213.153,58.503 Z M284.55,84.341 C274.584,69.893 270.946,63.091 267.835,61.351 L283.074,46.902 L271.473,46.902 L255.812,61.825 L255.812,46.902 L247.48,46.902 L247.48,84.341 L255.812,84.341 L255.812,72.741 L261.876,67.046 C263.511,67.784 265.62,71.95 274.057,84.341 L284.55,84.341 L284.55,84.341 Z M288.505,84.341 L296.836,84.341 L296.836,46.902 L288.505,46.902 L288.505,84.341 Z" id="Fill-1" sketch:type="MSShapeGroup"></path>
            <path d="M117.71,0.902 L109.326,0.902 L109.326,21.151 C109.326,28.112 106.215,31.697 99.676,31.697 C93.243,31.697 90.553,28.059 90.553,21.151 L90.553,0.902 L81.589,0.902 L81.589,21.415 C81.589,35.283 91.397,39.08 99.623,39.08 C107.955,39.08 117.71,35.336 117.71,21.415 L117.71,0.902 L117.71,0.902 Z M159.262,0.902 L150.878,0.902 L150.878,21.151 C150.878,28.112 147.766,31.697 141.228,31.697 C134.795,31.697 132.105,28.059 132.105,21.151 L132.105,0.902 L123.141,0.902 L123.141,21.415 C123.141,35.283 132.949,39.08 141.175,39.08 C149.507,39.08 159.262,35.336 159.262,21.415 L159.262,0.902 L159.262,0.902 Z M182.78,0.164 C174.237,0.164 167.013,4.172 167.013,11.765 C167.013,17.776 171.653,20.993 178.245,21.837 L186.207,22.839 C190.795,23.419 191.639,25.159 191.639,26.952 C191.639,29.588 189.635,31.697 183.834,31.697 C176.874,31.697 172.972,28.217 171.759,23.682 L163.849,26.002 L165.642,28.903 C168.701,36.127 175.345,39.08 183.202,39.08 C193.853,39.08 200.339,34.281 200.339,26.635 C200.339,20.518 195.804,15.878 187.526,15.034 L181.251,14.402 C176.399,13.927 175.45,13.031 175.45,11.29 C175.45,9.181 178.034,7.441 182.411,7.441 C187.736,7.441 190.742,9.656 192.008,12.24 L198.915,8.337 C196.437,4.119 191.269,0.164 182.78,0.164 L182.78,0.164 Z M205.19,38.342 L213.522,38.342 L213.522,0.903 L205.19,0.903 L205.19,38.342 Z" id="Fill-2" sketch:type="MSShapeGroup"></path>
            <path d="M336.446,15.824 C330.683,17.769 324.699,19.499 318.801,21.158 C320.324,15.152 321.567,8.879 322.256,2.307 L315.647,1.015 C315.103,6.201 314.163,11.233 313.02,16.124 C309.881,11.935 306.626,7.741 303.119,3.781 L295.747,8.257 C300.176,13.257 304.275,18.758 308.241,24.133 C302.132,25.871 295.99,27.7 290.11,29.802 L292.551,34.918 C297.952,32.989 303.629,31.28 309.299,29.655 C308.749,31.413 308.191,33.155 307.625,34.861 C306.272,38.939 303.805,45.119 302.455,49.66 L308.851,52.034 C310.173,47.58 312.627,41.444 313.965,37.411 C314.395,36.113 314.818,34.789 315.239,33.461 C318.785,38.074 322.502,42.634 326.646,46.864 L333.764,42.117 C329.027,37.279 324.759,31.878 320.682,26.445 C326.717,24.749 332.853,22.978 338.803,20.971 L336.446,15.824" id="Fill-3" sketch:type="MSShapeGroup"></path>
        </g>
    </g>
</svg>